<?xml version="1.0" encoding="UTF-8"?>
<svg xmlns:rdf="http://www.w3.org/1999/02/22-rdf-syntax-ns#" xmlns="http://www.w3.org/2000/svg" xmlns:cc="http://creativecommons.org/ns#" xmlns:xlink="http://www.w3.org/1999/xlink" xmlns:dc="http://purl.org/dc/elements/1.1/" xmlns:svg="http://www.w3.org/2000/svg" xmlns:inkscape="http://www.inkscape.org/namespaces/inkscape" xmlns:sodipodi="http://sodipodi.sourceforge.net/DTD/sodipodi-0.dtd" xmlns:ns1="http://sozi.baierouge.fr" id="svg13644" viewBox="0 0 210.63 250.24" version="1.1">
  <defs id="defs13646">
    <linearGradient id="linearGradient3173-6-5-94">
      <stop id="stop3175-28-7-4" stop-color="#a5a5a5" offset="0"/>
      <stop id="stop3177-7-3-91" offset="1"/>
    </linearGradient>
    <filter id="filter4464-3" width="1.2584" y="-.19686" x="-.12918" height="1.3937" color-interpolation-filters="sRGB">
      <feGaussianBlur id="feGaussianBlur4466-6" stdDeviation="0.14908269"/>
    </filter>
    <filter id="filter4464-4-9" width="1.2584" y="-.19686" x="-.12918" height="1.3937" color-interpolation-filters="sRGB">
      <feGaussianBlur id="feGaussianBlur4466-0-5" stdDeviation="0.14908269"/>
    </filter>
    <filter id="filter4878" color-interpolation-filters="sRGB">
      <feGaussianBlur id="feGaussianBlur4880" stdDeviation="0.49627609"/>
    </filter>
    <radialGradient id="radialGradient36968" gradientUnits="userSpaceOnUse" cy="-8.8805" cx="414.68" gradientTransform="matrix(-.0000018232 .27968 -.60927 0 101.73 -39.26)" r="123.55">
      <stop id="stop3205-9-19" stop-color="#ffb142" offset="0"/>
      <stop id="stop4092-0-74" stop-color="#ffb141" offset=".88679"/>
      <stop id="stop3207-9-1" stop-color="#c87600" offset="1"/>
    </radialGradient>
    <radialGradient id="radialGradient36970" gradientUnits="userSpaceOnUse" cy="483.45" cx="610.46" gradientTransform="matrix(0 -.48219 .43190 -.0000012542 -151.97 551.35)" r="167.56">
      <stop id="stop3175-8-9-10" stop-color="#a5a5a5" offset="0"/>
      <stop id="stop3177-5-98-98" offset="1"/>
    </radialGradient>
    <linearGradient id="linearGradient36972" y2="537.41" gradientUnits="userSpaceOnUse" x2="359.47" gradientTransform="matrix(.30074 0 0 .32584 107.58 234.33)" y1="537.41" x1="346.24">
      <stop id="stop4100-0-63" stop-color="#ffb142" offset="0"/>
      <stop id="stop4104-3-20" stop-color="#c87600" offset="1"/>
    </linearGradient>
    <radialGradient id="radialGradient36974" xlink:href="#linearGradient3173-6-5-94" gradientUnits="userSpaceOnUse" cy="622.49" cx="380.26" gradientTransform="matrix(0 -.74351 .66041 0 -364.7 582.13)" r="59.255"/>
    <radialGradient id="radialGradient36976" gradientUnits="userSpaceOnUse" cy="389.09" cx="543.99" gradientTransform="matrix(.80329 -.28778 .17566 .43473 -297.92 341.1)" r="40.927">
      <stop id="stop40139" stop-color="#ffe218" offset="0"/>
      <stop id="stop40141" stop-color="#cfb400" offset="1"/>
    </radialGradient>
    <radialGradient id="radialGradient36978" gradientUnits="userSpaceOnUse" cy="391.26" cx="545.13" gradientTransform="matrix(-.0021886 .25546 -.65669 -.0049880 469.57 210)" r="3.8643">
      <stop id="stop40168" stop-color="#3b4fdc" offset="0"/>
      <stop id="stop40170" stop-color="#19278b" offset="1"/>
    </radialGradient>
    <radialGradient id="radialGradient36980" gradientUnits="userSpaceOnUse" cy="462.99" cx="546.78" gradientTransform="matrix(.97540 .0076593 -.0041601 .52367 -320.21 135.62)" r="46.651">
      <stop id="stop40174" stop-color="#060000" offset="0"/>
      <stop id="stop40176" stop-color="#ddc100" offset="1"/>
    </radialGradient>
    <linearGradient id="linearGradient36982" y2="243.28" gradientUnits="userSpaceOnUse" x2="-775.75" gradientTransform="matrix(1.1335 0 0 1.1335 264.29 -62.715)" y1="189.44" x1="-779.04">
      <stop id="stop40815" stop-color="#152074" offset="0"/>
      <stop id="stop40817" stop-color="#0c1343" offset="1"/>
    </linearGradient>
    <linearGradient id="linearGradient36984" y2="-6.6995" gradientUnits="userSpaceOnUse" x2="113.68" gradientTransform="matrix(-.57274 0 0 .57274 330.44 224.68)" y1="-180.82" x1="212.43">
      <stop id="stop42659-3" stop-color="#efeed1" offset="0"/>
      <stop id="stop42661-0" stop-color="#fff" offset=".5"/>
      <stop id="stop42663-9" stop-color="#fefefb" offset="1"/>
    </linearGradient>
    <linearGradient id="linearGradient36986" y2="9.2273" gradientUnits="userSpaceOnUse" x2="279.31" gradientTransform="matrix(-.57274 0 0 .57274 330.44 224.68)" y1="-342" x1="290.79">
      <stop id="stop3992" stop-color="#8e8e8e" offset="0"/>
      <stop id="stop3994" stop-color="#fff" offset=".5"/>
      <stop id="stop3996" stop-color="#666" offset="1"/>
    </linearGradient>
    <linearGradient id="linearGradient36988" y2="-21.352" gradientUnits="userSpaceOnUse" x2="474.26" gradientTransform="matrix(-.57274 0 0 .57274 330.44 224.68)" y1="-172.54" x1="371.7">
      <stop id="stop42703" stop-color="#efeed1" offset="0"/>
      <stop id="stop42705" stop-color="#fff" offset=".51894"/>
      <stop id="stop42707" stop-color="#fefefb" offset="1"/>
    </linearGradient>
    <linearGradient id="linearGradient36990" y2="11.138" gradientUnits="userSpaceOnUse" x2="296.52" gradientTransform="matrix(-.57274 0 0 .57274 330.44 224.68)" y1="-115.2" x1="298.44">
      <stop id="stop42659-2" stop-color="#efeed1" offset="0"/>
      <stop id="stop42661-9" stop-color="#fff" offset=".5"/>
      <stop id="stop42663-7" stop-color="#fefefb" offset="1"/>
    </linearGradient>
    <linearGradient id="linearGradient36992" y2="9.2273" gradientUnits="userSpaceOnUse" x2="279.31" gradientTransform="matrix(-.57274 0 0 .57274 330.44 224.68)" y1="-342" x1="290.79">
      <stop id="stop42659" stop-color="#efeed1" offset="0"/>
      <stop id="stop42661" stop-color="#fff" offset=".5"/>
      <stop id="stop42663" stop-color="#fefefb" offset="1"/>
    </linearGradient>
    <radialGradient id="radialGradient36994" xlink:href="#linearGradient3173-6-5-94" gradientUnits="userSpaceOnUse" cy="647.69" cx="371.45" gradientTransform="matrix(0 -.74351 -.66041 0 552.03 582.13)" r="59.255"/>
  </defs>
  <g id="layer1" transform="translate(-280.03 -303.54)">
    <g id="g43101" transform="matrix(.36378 0 0 .36378 612.72 258.34)">
      <g id="g45484-1-68" fill-rule="evenodd" transform="matrix(4.8521 0 0 5.257 -1070.3 -1322.2)">
        <path id="path3806-0-1-79" style="color:#000000" d="m81.781 385.54c-15.668 1.6128-33.638 14.291-26.495 17.056 7.1425 2.7649 27.873 3.9181 31.79 0.69241 2.0127-1.6576 5.6139-5.8087 6.0383-9.704 0.42497 3.8949 4.0155 8.0466 6.0281 9.704 3.9169 3.2257 24.658 2.0724 31.8-0.69241 7.1426-2.7649-10.827-15.443-26.495-17.056-8.0678 0.77761-10.97 3.4884-11.333 6.5983-0.36356-3.1099-3.2654-5.8207-11.333-6.5983z" stroke="#000" stroke-width="1.5639" fill="url(#radialGradient36968)"/>
        <path id="path3194-5-0-09" d="m81.784 385.55c-7.69 0.79161-15.927 4.249-21.485 7.8915 8.4173 3.8928 18.709 6.2918 29.865 6.5678 1.4296-1.8809 2.7102-4.1871 2.9529-6.415 0.24081 2.207 1.4914 4.4927 2.902 6.3641 10.973-0.4646 21.052-2.9801 29.254-6.9445-5.5378-3.4836-13.432-6.7029-20.823-7.4638-8.0678 0.77762-10.97 3.4884-11.333 6.5983-0.36356-3.1099-3.2654-5.8207-11.333-6.5983z" fill-opacity=".31373"/>
      </g>
      <g id="g45507-1-737" transform="matrix(4.8521 0 0 5.257 -1070.3 -1322.2)">
        <path id="path2385-16-4-1" style="color:#000000" d="m146.28 340.23a53.948 53.948 0 0 1 -107.9 0 53.948 53.948 0 1 1 107.9 0z" stroke="#000" stroke-linecap="round" stroke-width="1.5639" fill="url(#radialGradient36970)"/>
        <path id="path3167-8-2-34" d="m118.99 367.2a26.153 26.153 0 1 1 -52.307 0 26.153 26.153 0 1 1 52.307 0z" stroke="#000" stroke-linecap="round" stroke-width="1.6292" fill="#fff"/>
        <path id="path2411-0-7-54" d="m144.15 325.23c0.10951 1.4027 0.1731 2.8155 0.1731 4.2461 0 29.779-24.178 53.947-53.957 53.947-24.575 0-45.316-16.459-51.819-38.948 2.1699 27.795 25.426 49.701 53.774 49.701 29.779 0 53.957-24.168 53.957-53.947 0-5.2041-0.75099-10.237-2.1282-14.999z" fill-opacity=".31373"/>
      </g>
      <g id="g5306" transform="matrix(5.257 0 0 5.257 -1741.8 -1684.1)">
        <path id="path2387-0-6-79" d="m203 373.17c-6.8975 0-12.5 6.9841-12.5 15.589 0 8.6054 5.6022 15.589 12.5 15.589 4.0535 0 7.6505-2.4146 9.934-6.1503 2.2833 3.7383 5.8882 6.1503 9.9434 6.1503 6.8975 0 12.5-6.9841 12.5-15.589 0-8.6054-5.6022-15.589-12.5-15.589-4.0547 0-7.66 2.4127-9.9434 6.1503-2.2835-3.7348-5.881-6.1503-9.934-6.1503z" stroke="#000" stroke-linecap="round" stroke-width="1.5652" fill="#fff"/>
        <path id="path3393-6-2-697" d="m213.53 400.05c-4.3545 0-9.0876 4.2966-8.8983 7.0102 0.18932 2.7136 7.7623 14.02 9.4663 14.02 1.7039 0 8.3303-11.081 8.141-14.247-0.18932-3.1659-5.8691-7.0102-8.709-6.7841z" fill-rule="evenodd" fill-opacity=".31373"/>
        <path id="path2391-7-0-11" d="m212.84 397.34c-4.3545 0-9.0876 3.8974-8.8983 6.3588 0.18933 2.4615 7.7624 12.718 9.4663 12.718s8.3303-10.051 8.141-12.923c-0.18933-2.8717-5.8691-6.3588-8.709-6.1537z" fill-rule="evenodd" stroke="#000" stroke-width="1.5652" fill="url(#linearGradient36972)"/>
        <path id="path3163-3-7-65" stroke="#000" stroke-width="1.5652" stroke-linecap="round" d="m210.75 391.5a3.1239 3.3846 0 0 1 -6.2477 0 3.1239 3.3846 0 1 1 6.2477 0z"/>
        <path id="path3165-6-9-38" stroke="#000" stroke-width="1.5652" stroke-linecap="round" d="m221.93 391.5a3.1239 3.3846 0 1 1 -6.2477 0 3.1239 3.3846 0 1 1 6.2477 0z"/>
      </g>
      <g id="g45492-7-93" fill-rule="evenodd" stroke="#000" stroke-width="1.6292" transform="matrix(4.8521 0 0 5.257 -1076.8 -1322.2)">
        <path id="path3169-39-3-50" d="m51.639 328.16c15.558 5.6214-5.618 30.543 12.323 52.523 3.2373 3.966-18.856 0.68126-26.629-21.696-7.559-21.762-0.36897-35.041 14.306-30.827z" fill="#fff"/>
        <path id="path3793-56-2-21" d="m51.639 328.16c15.677 5.6371-13.877 33.276 12.323 52.523 7.3726 5.416-18.856 0.68126-26.629-21.696-7.559-21.762-0.36897-35.041 14.306-30.827z" fill="url(#radialGradient36974)"/>
      </g>
      <g id="g4882" transform="matrix(5.257 0 0 5.257 -1740.3 -1694.2)">
        <g id="g4848">
          <g id="g4831">
            <path id="path4207-1" d="m166.17 389.3c0.9228-7.4045 10.578-26.717 19.874-30.626 9.4216-4.2056 15.782-6.9697 22.364-9.8385 2.0657-0.61056 3.5257-0.0807 5.1327 0.17262 14.793 1.7886 22.453 8.2267 31.163 13.981 6.4806 4.4298 14.213 21.617 14.797 26.162-13.661 3.9935-17.005-17.942-47.928-20.564-32.612 1.5283-27.156 21.63-45.403 20.713z" stroke="#000" stroke-width="1.259" fill="url(#radialGradient36976)"/>
            <path id="path4213-1" opacity=".28025" d="m213.91 348.66c1.6704 5.0055 2.1932 11.841 2.2311 16.846" stroke="#00108a" stroke-dasharray="0.76735715, 0.38367857" stroke-width=".38368" fill="none"/>
            <path id="path4211-2" opacity=".28025" d="m211.05 347.71c1.4855 4.9391 2.2094 12.777 2.781 18.146" stroke="#00108a" stroke-dasharray="0.76735715, 0.38367857" stroke-width=".38368" fill="none"/>
            <path id="path4209-6" opacity=".28025" d="m208.41 348.84c1.1631 4.6008 2.0778 11.264 2.781 16.298" stroke="#00108a" stroke-dasharray="0.76735715, 0.38367857" stroke-width=".38368" fill="none"/>
            <path id="path4215-5" opacity=".28025" style="color:#000000" d="m181.5 361.68c-3.6862 4.6215-5.1662 10.074-6.5418 15.566" stroke="#00108a" stroke-dasharray="0.76735715, 0.38367857" stroke-width=".38368" fill="none"/>
            <path id="path4217-4" opacity=".28025" style="color:#000000" d="m240.8 360.43c5.3384 4.9493 13.312 19.329 13.973 24.939" stroke="#00108a" stroke-dasharray="0.76735715, 0.38367857" stroke-width=".38368" fill="none"/>
            <path id="path4219-3" d="m208.02 348.6c0.32501 1.4324 6.5343 1.6254 6.6302-0.32115 0.12293-2.3847-7.0722-2.3442-6.6302 0.32115z" stroke="#000" stroke-width="1.259" fill="url(#radialGradient36978)"/>
            <g id="g4468-8" transform="matrix(.98850 0 0 .93076 -328.14 -17.918)">
              <path id="path4221-6-1" opacity=".41017" style="color:#000000" d="m532.24 400.59c-1.7343 0.11472-2.8776 1.1001-1.5796 1.8175 1.1615-0.008 3.2681-1.4409 1.5796-1.8175z" filter="url(#filter4464-3)" stroke="#000" stroke-width="1.4"/>
              <path id="path4221-8" stroke-linejoin="round" style="color:#000000" d="m532.57 400.68c-1.0155-0.69394-2.9675 0.89048-2.1187 1.518 0.95181 0.4113 2.7889-0.72214 2.1187-1.518z" stroke="#19278b" stroke-linecap="round" stroke-width="1px"/>
            </g>
            <g id="g4468-3-8" transform="matrix(-.98850 0 0 .93076 751.6 -19.349)">
              <path id="path4221-6-8-4" opacity=".41017" style="color:#000000" d="m532.24 400.59c-1.7343 0.11472-2.8776 1.1001-1.5796 1.8175 1.1615-0.008 3.2681-1.4409 1.5796-1.8175z" filter="url(#filter4464-4-9)" stroke="#000" stroke-width="1.4"/>
              <path id="path4221-1-5" stroke-linejoin="round" style="color:#000000" d="m532.57 400.68c-1.0155-0.69394-2.9675 0.89048-2.1187 1.518 0.95181 0.4113 2.7889-0.72214 2.1187-1.518z" stroke="#19278b" stroke-linecap="round" stroke-width="1px"/>
            </g>
            <path id="path4215-5-2" opacity=".28025" style="color:#000000" d="m173.54 386.95c-3.9465 0.96934-5.6959 1.3375-7.1119 1.2437" stroke="#00108a" stroke-dasharray="0.76735715, 0.38367857" stroke-width=".38368" fill="none"/>
            <path id="path4215-5-2-7" opacity=".28025" style="color:#000000" d="m173.85 385.89c-5.2751 1.1215-6.0247 1.3665-7.1119 1.2437" stroke="#00108a" stroke-dasharray="0.76735715, 0.38367857" stroke-width=".38368" fill="none"/>
          </g>
          <g id="g4723-4" transform="matrix(.99221 .12457 -.12457 .99221 134.81 -17.341)" stroke="#00108a" stroke-dasharray="0.76735715, 0.38367857" stroke-width=".38368" fill="none">
            <path id="path4215-5-2-3" opacity=".28025" style="color:#000000" d="m173.54 386.95c-3.9465 0.96934-5.6959 1.3375-7.1119 1.2437"/>
            <path id="path4215-5-2-7-4" opacity=".28025" style="color:#000000" d="m173.85 385.89c-5.2751 1.1215-6.0247 1.3665-7.1119 1.2437"/>
          </g>
          <g id="g4666" stroke="#000" stroke-width="1.0632" transform="matrix(.87508 0 0 .91038 27.208 40.755)">
            <path id="path4205-5" stroke-linejoin="round" d="m171.75 382c-4.9827 3.0521-7.4097-0.68468-8.3789-3.6196-0.41566-1.1205-1.0335-5.495 8.8658-11.323 27.393-16.134 59.861-16.304 85.367 2.6468 5.6584 4.5244 4.8242 7.7578 3.5369 10.901-1.4221 1.5242-3.9573 2.6308-6.1896 2.8132-17.981-42.692-88.016-22.832-83.201-1.4182z" stroke-linecap="round" fill="#ffe00a"/>
            <path id="path4203-3" d="m174.06 378.81c13.956-22.147 57.882-20.702 77.858 1.2424 1.0291 1.0282 2.0485 2.2417 3.5369 2.8132 2.5136-1.4449 7.2669-3.258 3.6612-9.206-18.106-15.609-57.143-27.571-92.68 0.49696-5.645 4.9516 3.6061 10.784 5.3244 7.4667z" fill="url(#radialGradient36980)"/>
          </g>
        </g>
        <path id="path4872" opacity=".30847" filter="url(#filter4878)" d="m177.16 389.15c17.418-15.493 54.109-14.62 73.807 0.55634 8.8403-5.024-13.211-21.409-38.206-21.539-23.296-0.0367-45.704 17.481-35.6 20.982z"/>
      </g>
      <path id="path40745-5" d="m-615.17 158.35c-19.112 0-34.714 12.21-34.714 27.098 0 0.73917 0.0309 1.4714 0.10627 2.1962-2.6792-3.2972-5.2675-7.1361-7.6866-11.831-3.2518-9.1966-42.39 13.564-32.269 16.082 23.261 14.381 52.205 19.237 66.133 19.801 2.6951 0.52832 5.5306 0.81471 8.4304 0.81471 7.3581 0 14.178-1.8153 19.801-4.8882 15.563-6.2788 31.008-16.61 37.229-16.861 2.124 0.98178 4.2406 1.462 5.5967 1.346 8.3838-1.1527-6.4355-17.343-9.3514-9.4577-0.26534 2.0389 0.0363 2.4024-0.0708 3.613-3.9782 3.1339-10.322 5.9165-21.076 9.316 1.6385-3.1401 2.5504-6.5457 2.5504-10.131 0-14.888-15.566-27.098-34.678-27.098zm0 10.485c11.744 0 21.182 7.3878 21.182 16.613 0 9.2251-9.438 16.578-21.182 16.578s-21.218-7.3524-21.218-16.578c0-9.2251 9.4734-16.613 21.218-16.613z" fill="url(#linearGradient36982)"/>
      <g id="layer1-9" transform="matrix(1.1453 -.55155 .55155 1.1453 -752.62 589.26)">
        <g id="g4649" transform="matrix(1.0539 0 0 1.0539 -.082210 306.16)">
          <g id="g3949" transform="translate(-39.991 -356.96)">
            <path id="path4554" style="block-progression:tb;color:#000000;text-transform:none;text-indent:0" d="m254.16 78.866c5.4498 0 9.9688 4.1905 9.9688 9.4688v129.41c0 5.2783-4.519 9.4688-9.9688 9.4688h-193.91c-5.4498 0-9.9688-4.1905-9.9688-9.4688v-129.41c0-5.2783 4.519-9.4688 9.9688-9.4688h193.91z"/>
            <path id="path4919" stroke-linejoin="round" style="color:#000000" d="m251.15 85.335c-8.2653 8.0764-64.006 58.498-67.004 61.882-3.1512 3.5562-3.1454 3.584-3.1454 7.1402s-0.009 3.5834 3.1454 7.1402c2.811 3.1718 51.143 46.9 64.24 59.237h9.4358c2.5717 0 4.6703-2.6707 4.6703-5.9502v-123.63c0-3.2794-2.0986-5.8179-4.6703-5.8179h-6.6718z" stroke="#000" stroke-linecap="round" stroke-width="3.273" fill="url(#linearGradient36984)"/>
            <path id="path4909" stroke-linejoin="round" d="m63.822 85.335c8.2653 8.0764 64.006 58.498 67.004 61.882 3.1512 3.5562 3.1453 3.584 3.1453 7.1402s0.009 3.5834-3.1453 7.1402c-2.8111 3.1718-51.144 46.9-64.24 59.237h-9.4358c-2.5717 0-4.6703-2.6707-4.6703-5.9502v-123.63c0-3.2794 2.0986-5.8179 4.6703-5.8179h6.6718z" stroke="#000" stroke-linecap="round" stroke-width="3.273" fill="url(#linearGradient36986)"/>
            <path id="path4917" stroke-linejoin="round" style="color:#000000" d="m63.822 85.335c8.2653 8.0764 64.006 58.498 67.004 61.882 3.1512 3.5562 3.1454 3.584 3.1454 7.1402s0.009 3.5834-3.1454 7.1402c-2.811 3.1718-51.143 46.9-64.24 59.237h-9.4358c-2.5717 0-4.6703-2.6707-4.6703-5.9502v-123.63c0-3.2794 2.0986-5.8179 4.6703-5.8179h6.6718z" stroke="#000" stroke-linecap="round" stroke-width="3.273" fill="url(#linearGradient36988)"/>
            <path id="path4923" stroke-linejoin="round" style="color:#000000" d="m161.71 146.5c2.6088 0.17512 3.6814 0.93036 7.8013 3.7023 4.5109 3.0353 63.444 52.508 87.798 72.46-1.1234 1.7232-3.2002 2.909-5.5535 2.909h-190.14c-1.4682 0-2.7536-0.56754-3.8345-1.3223 23.172-18.925 85.032-70.94 89.649-74.047 5.4926-3.6959 5.4821-3.7023 10.975-3.7023 1.3732 0 2.4361-0.0584 3.3057 0z" stroke="#000" stroke-linecap="round" stroke-width="3.273" fill="url(#linearGradient36990)"/>
            <path id="path4993" stroke-linejoin="round" d="m251.75 80.503c3.5677 0 6.4791 2.6707 6.4791 5.9502v0.26448c-11.423 9.0789-85.735 73.258-90.707 76.691-5.2088 3.5979-5.237 3.5701-10.446 3.5701-5.2088 0-5.1041 0.0269-10.314-3.5701-4.96-3.42-78.683-67.198-90.58-76.693v-3.5701c1.155-1.5741 3.1914-2.6445 5.4213-2.6445h190.14z" stroke="#000" stroke-linecap="round" stroke-width="3.273" fill="url(#linearGradient36992)"/>
          </g>
        </g>
      </g>
      <g id="g45488-4-9" fill-rule="evenodd" stroke="#000" stroke-width="1.6292" transform="matrix(4.8255 .50717 -.54949 5.2282 -890.52 -1387.9)">
        <path id="path3800-9-7-03" d="m135.69 328.16c-15.677 5.6371 4.615 30.676-12.323 52.523-3.1308 4.0382 18.856 0.68126 26.629-21.696 7.559-21.762 0.36897-35.041-14.306-30.827z" fill="#fff"/>
        <path id="path3802-9-1-11" d="m135.69 328.16c-15.677 5.6371 13.877 33.276-12.323 52.523-7.3726 5.416 18.856 0.68126 26.629-21.696 7.559-21.762 0.36897-35.041-14.306-30.827z" fill="url(#radialGradient36994)"/>
      </g>
    </g>
  </g>
  <metadata>
    <rdf:RDF>
      <cc:Work>
        <dc:format>image/svg+xml</dc:format>
        <dc:type rdf:resource="http://purl.org/dc/dcmitype/StillImage"/>
        <cc:license rdf:resource="http://creativecommons.org/licenses/publicdomain/"/>
        <dc:publisher>
          <cc:Agent rdf:about="http://openclipart.org/">
            <dc:title>Openclipart</dc:title>
          </cc:Agent>
        </dc:publisher>
        <dc:title>Mr. Postman</dc:title>
        <dc:date>2013-09-10T16:26:33</dc:date>
        <dc:description>This penguin alwas rings twice.</dc:description>
        <dc:source>https://openclipart.org/detail/183286/mr.-postman-by-moini-183286</dc:source>
        <dc:creator>
          <cc:Agent>
            <dc:title>Moini</dc:title>
          </cc:Agent>
        </dc:creator>
        <dc:subject>
          <rdf:Bag>
            <rdf:li>Tux</rdf:li>
            <rdf:li>animal</rdf:li>
            <rdf:li>bird</rdf:li>
            <rdf:li>cap</rdf:li>
            <rdf:li>delivery</rdf:li>
            <rdf:li>envelope</rdf:li>
            <rdf:li>letter</rdf:li>
            <rdf:li>mail</rdf:li>
            <rdf:li>penguin</rdf:li>
            <rdf:li>post</rdf:li>
            <rdf:li>postage</rdf:li>
            <rdf:li>postal</rdf:li>
            <rdf:li>postman</rdf:li>
            <rdf:li>shipping</rdf:li>
          </rdf:Bag>
        </dc:subject>
      </cc:Work>
      <cc:License rdf:about="http://creativecommons.org/licenses/publicdomain/">
        <cc:permits rdf:resource="http://creativecommons.org/ns#Reproduction"/>
        <cc:permits rdf:resource="http://creativecommons.org/ns#Distribution"/>
        <cc:permits rdf:resource="http://creativecommons.org/ns#DerivativeWorks"/>
      </cc:License>
    </rdf:RDF>
  </metadata>
</svg>